,pfba_vs_gimme_pfba_activity
2DGLCNRy2ip,2.0
2DGLCNRz2i,
2DHGLCK,
2DHGLCNt6i,
2KG6PRy,
A5PISO,-1.0
ACACT1,2.0
ACCOACr,1.0
ACGK,1.0
ACGS,
ACHBS,1.0
ACLS,1.0
ACMAT1,4.0
ACOATA,4.0
ACODA,
ACONTa,-1.0
ACONTb,1.0
ACOTA,-1.0
ACS,
ACt6,-1.0
ADCL,1.0
ADCS,1.0
ADK1,1.0
ADSK,1.0
ADSL1r,1.0
ADSL2r,1.0
ADSS,1.0
AGMHE,1.0
AGPR,-1.0
AICART,1.0
AIRCr,-1.0
AKGDH,1.0
ALAALA,1.0
ALAR,1.0
ALATA_L,-1.0
ALATRS,1.0
ANPRT,-1.0
ANS,1.0
APRAUR,1.0
ARGSL,1.0
ARGSS,1.0
ARGTRS,1.0
ASAD,-1.0
ASP1DC,1.0
ASPCT,1.0
ASPK,1.0
ASPO6,1.0
ASPTA,-1.0
ASPTRS,1.0
ATPM,1.0
ATPPRT,-1.0
ATPS4r,1.0
BPNT,1.0
BTMAT1,1.0
CAT,1.0
CBPS,1.0
CHORM,1.0
CHORS,1.0
CITt6,
CO2t,-1.0
CS,1.0
CTPS2,1.0
CYOO3,2.0
CYORUBQ8-4h,2.0
CYSS,
CYSTRS,1.0
CYTBO3,4.0
CYTK1,1.0
DAHPS,1.0
DAPDC,1.0
DAPE,1.0
DDMAT5,1.0
DEMAT4,1.0
DHAD1,1.0
DHAD2,1.0
DHDPRy,1.0
DHDPS,1.0
DHFR,-1.0
DHFS,1.0
DHNPA2,1.0
DHORTS,-1.0
DHPPDA2,1.0
DHQD,1.0
DHQS,1.0
DMOCT,1.0
DNMPPA,1.0
DNTPPA,1.0
DPCOAK,1.0
DPR,-1.0
DTMPK,1.0
EDA,1.0
EDD,1.0
ENO,1.0
EX_2dhglcn_e,2.0
EX_EC9324_e,1.0
EX_ac_e,1.0
EX_cit_e,
EX_co2_e,1.0
EX_fum_e,
EX_gcald_e,1.0
EX_glc__D_e,-1.0
EX_glcr_e,
EX_h2o_e,1.0
EX_h_e,-1.0
EX_nh4_e,-1.0
EX_o2_e,-1.0
EX_pi_e,-1.0
EX_pyr_e,
EX_so4_e,-1.0
FBA,
FBP,
FDH,2.0
FMNAT,1.0
FUM,-1.0
FUMt6,
G1Dz,2.0
G1PACT,1.0
G1SATi,1.0
G3PD2,-1.0
G5SADs,1.0
G5SD,-1.0
G6PDHy,4.0
GALU,1.0
GAPD,1.0
GART,4.0
GCALDt,-1.0
GDPMR,-1.0
GF6PTA,1.0
GHMT2,-1.0
GK1,1.0
GLCLCT,2.0
GLCNt2ir,2.0
GLCRD,
GLCRt2r,
GLCS1,1.0
GLCabc,1.0
GLGC,1.0
GLNS,1.0
GLU5K,1.0
GLUDy,-1.0
GLUPRT,1.0
GLUR,1.0
GLUTRR,1.0
GLUTRS,1.0
GLYCL,1.0
GLYTRS,1.0
GMAND,1.0
GMHEPAT,1.0
GMHEPK,1.0
GMHEPPA,1.0
GMPS2,1.0
GND,1.0
GNK,2.0
GTPCI,1.0
GTPCII2,1.0
H2Ot5,-1.0
HBUHL1,1.0
HBUR1,4.0
HCO3E,1.0
HDDHL5,1.0
HDDR5,1.0
HDEHL4,1.0
HDER4,1.0
HEMAT2,1.0
HEX1,1.0
HHDHL7,1.0
HHDR7,1.0
HHYHL2,1.0
HHYR2,1.0
HISTD,1.0
HISTP,1.0
HISTRS,1.0
HOCHL3,1.0
HOCR3,1.0
HSAT,1.0
HSDy,-1.0
HSK,1.0
HSST,2.0
HSTPT,-1.0
HTDHL6,1.0
HTDR6,1.0
ICDH_a,1.0
ICDH_b,1.0
IG3PS,1.0
IGPDH,1.0
IGPS,1.0
ILETRS,1.0
IMPC,1.0
IMPD,1.0
IPMD,1.0
IPPMIa,-1.0
IPPMIb,1.0
IPPS,1.0
IR00283,1.0
IR00394,
IR00642,4.0
IR00645,2.0
IR01046,1.0
IR01734,1.0
IR02264,1.0
IR02265,1.0
IR02407,1.0
IR03538,
IR03622,1.0
IR04850,1.0
IR05334,
IR05416,1.0
IR07938,1.0
IR07969,4.0
IR09689,1.0
IR09690,1.0
IR09691,1.0
IR09692,1.0
IR09693,1.0
IR09694,1.0
IR09695,1.0
IR09696,1.0
IR09697,1.0
IR09698,1.0
IR09699,1.0
IR09700,1.0
IR09701,1.0
IR09702,1.0
IR09703,1.0
IR09704,1.0
IR10309,1.0
IR10320,1.0
IR10321,1.0
IR10322,1.0
IR10323,1.0
IR10326,1.0
IR10327,1.0
IR10334,1.0
IR10335,1.0
IR10336,1.0
IR10337,1.0
IR10338,1.0
IR10339,1.0
IR10340,1.0
IR10343,1.0
IR10344,1.0
IR10345,1.0
IR10346,1.0
IR10347,1.0
IR10348,1.0
IR10365,1.0
IR10366,
IR10371,1.0
IR10374,1.0
IR10377,1.0
IR10382,1.0
IR10383,1.0
IR10384,1.0
IR10385,1.0
IR10386,1.0
IR10389,1.0
KARA2i,1.0
KDOPP,1.0
KDOPS,1.0
LEUTAi,-4.0
LEUTRS,1.0
LLEUDr,-2.0
LYSTRS,1.0
MAN1PT2_r,1.0
MAN6PI,-1.0
MAT6,1.0
MCMAT2,1.0
MCMAT3,1.0
MCMAT4,1.0
MCMAT5,1.0
MCMAT6,1.0
MCMAT7,1.0
MCOATA,1.0
MDH,1.0
MDH2,
ME1,
METS,1.0
METTRS,1.0
MOHMT,1.0
MTHFC,1.0
MTHFD,1.0
MTHFR2,1.0
NADH6,1.0
NADK,1.0
NADS1,1.0
NDPK1,1.0
NDPK2,1.0
NDPK3,1.0
NDPK4,1.0
NDPK5,
NDPK7,1.0
NDPK8,2.0
NH4t,1.0
NNAT,1.0
NNDPR,1.0
O2t,1.0
OCMAT3,1.0
OMCDC,1.0
OMPDC,1.0
ORNDC,1.0
ORPT,-1.0
OXDE,-1.0
P5CR,1.0
PANTS,1.0
PAPPT3,1.0
PASR,1.0
PA_CORE1s,1.0
PA_CORE2s,1.0
PA_LPADSS,1.0
PA_MOAT,1.0
PA_MOAT2,1.0
PA_TDSK,1.0
PA_U23GAAT,1.0
PA_UACAT,1.0
PA_UHGADA,1.0
PA_USHD,1.0
PDH,1.0
PGAMT,-1.0
PGCD,1.0
PGI,4.0
PGK,-1.0
PGL,4.0
PGM,-1.0
PGMT,-1.0
PHETA1,-1.0
PHETRS,1.0
PIt2r,1.0
PMANM,1.0
PMDPHT,1.0
PNTK,1.0
PPA,1.0
PPBNGS,1.0
PPC,
PPCDC,1.0
PPNCL2,1.0
PPND,1.0
PPNDH,1.0
PPTGS,1.0
PRAGSr,1.0
PRAIS,1.0
PRAIi,1.0
PRASCS,1.0
PRFGS,1.0
PRMICIi,1.0
PROTRS,1.0
PRPPS,1.0
PSCVT,1.0
PSERT,-1.0
PSP_L,1.0
PYK,
PYRt2,
QULNS,1.0
RBFK,1.0
RBFSa,1.0
RBFSb,1.0
RIBB,1.0
RNDR1,1.0
RNDR2,1.0
RNDR3,1.0
RNDR4,1.0
RPE,2.0
RPI,-1.0
RR00129,
RR01210,-4.0
RR01269,
RR01271,1.0
RR01873,2.0
RR02474,-1.0
RR03649,1.0
RR03815,-2.0
RR03894,1.0
RR04185,1.0
RR09683,1.0
RR09730,-2.0
RR10392,-2.0
S7PI,1.0
SDPDS,1.0
SDPTA,-1.0
SERAT,
SERTRS,1.0
SHK3D,-1.0
SHKK,1.0
SHSL2,
SUCD1,1.0
SUCOAS,-1.0
SULR,-1.0
SULabc,1.0
TALA,1.0
THD5,1.0
THDPS,1.0
THRS,1.0
THRTRS,1.0
TKT1,-1.0
TKT2,1.0
TMDS,1.0
TPI,1.0
TRDR,1.0
TRPS1,1.0
TRPTRS,1.0
TYRTA,-1.0
TYRTRS,1.0
UAAGDS,1.0
UAGCVT,1.0
UAGDP,1.0
UAGPT3,1.0
UAMAGS,1.0
UAMAS,1.0
UAPGR,1.0
UDCPDP,1.0
UDPG4E,1.0
UGMDDS,1.0
UMPK,1.0
URIDK2r,-1.0
VALDHr,-2.0
VALTA,-4.0
VALTRS,1.0
