,flux
AP4AHr,-0.0
AHC,-0.0
RR04090,-0.0
RR09712,-0.0
VALTA,-0.0
2AEPPNAT,-0.0
MCOATA,-8.3491861447888
RR09910,-0.0
MCITL2,-0.0
DPR,0.00042138821669466836
HXPRT,-0.0
HSTPT,0.7213594896002123
HSDy,4.4567160545597275
ARGORNt3i,-0.0
AMAOT,-0.0
RR04093,-0.0
G6PDHy,-0.0
ANPRT,0.4071038703684366
SGSAD,-0.0
RR04087,-0.0
UREA2t2,-0.0
TKT2,-1.3299547781949503
UDCPDP,-0.1971239793362956
RR04086,-0.0
GARFTi,-0.0
TDPDRE,-0.0
PCAC,-0.0
NDPK3,-0.5332703593168274
3HBUTDH,-0.0
RR10310,-0.0
CHRPL,-0.0
FACOAL160t,-0.0
PCAIJ,-0.0
FNOR,-0.0
RR00129,-0.0
SDPTA,2.1326529068774587
RR03649,-1.8783915422262951
XANt2,-0.0
TYRt2r,-0.0
RR00739,-0.0
RR04095,-0.0
PRPPS,-7.231250348064897
PSCVT,-3.2446749842217555
PGAMT,0.4704549463362967
PGK,85.16256481631089
PYRt2,-0.0
MAN6PI,0.11431048149555836
ARGSL,-1.8783915422262951
IPMD,-3.485380504206966
PRASCS,-3.6473221385361154
RR02333,-0.0
IPPMIb,-3.485380504206966
GLYCL,-1.1575498601807392
ALATA_L,5.036196274249956
RR01269,-0.0
RR02474,5.857003382990696
UNK3,-0.0
RR01974,-0.0
RR02032,-0.0
G5SADs,-1.742690252103483
RR01237,-0.0
AIRC3,-0.0
UAGCVT,-0.1971239793362956
PASR,-1.7431116403201776
PTAr,-0.0
ADSL1r,-2.2337075149804377
RPI,9.222320385218694
RR00098,-0.0
RR09897,-0.0
ORPT,2.4377236914198694
GAPD,-85.16256481631089
UAG2E,-0.0
ACt6,1.1689594818105615
RR09683,-0.3848345744419666
DGK1,-0.0
AICART,-4.368681628136328
GHMT2,8.49737552469022
RR03162,-0.0
RR02322,-0.0
RR04097,-0.0
THFGLUS,-0.0
AKGt6,-0.0
FBA,-0.0
GLUt2r,-0.0
PAPPT3,-0.1971239793362956
XPPT,-0.0
CATC,-0.0
TDPDRR,-0.0
PCAB,-0.0
RR03815,1.5556367369289328
RR04094,-0.0
RR02237,-0.0
PTRCt2r,-0.0
ALATRS,-4.44482433624107
GLUDy,52.6519970061419
G1PTMT,-0.0
MTHFC,-4.4686720524373476
RR00827,-0.0
RR00579,-0.0
DHQD,-3.2446749842217555
TMPKr,-0.0
ACCOACr,-8.3491861447888
RR03664,-0.0
ALAR,-0.3942479586725912
AST,-0.0
BTDt6-RR,-0.0
NAt3,-0.0
OCOAT1r,-0.0
BTDD-RR,-0.0
ABTA,-0.0
RR00563,-0.0
RR03886,-0.0
GDPMR,0.11431048149555836
TTDA10COAR,-0.0
GLYCLTDx,-0.0
RR04085,-0.0
PGM,73.88188440947015
GLYt7,-0.0
FACOAL140(n)t,-0.0
LDH_D,-0.0
CYTK2,-0.0
RR01928,-0.0
RR00237,-0.0
ATPPRT,0.7213594896002123
ATPS4r,-960.8486378113984
CITt6,-0.0
CO2t,297.2671906256762
LCADi,-0.0
SELNPSr,-0.0
RR00338,-0.0
ADK1,-53.145560453750775
PIt2r,-6.652198658765355
RR02690,-0.0
RR00581,-0.0
PCAD,-0.0
RR09896,-0.0
RR04091,-0.0
RR02442,-0.0
PERD,-0.0
GALCTD,-0.0
PGCD,-11.280680406840743
PGI,-0.0
PSERT,11.280680406840743
RR00562,-0.0
VALDHr,2.371201490567034
RR10392,1.5069985376796515
RR02327,-0.0
RR04185,-5.857003382990696
DHORTS,2.4377236914198694
S7PI,-0.07620698766370557
IPPMIa,3.485380504206966
ENO,-73.88188440947015
URAt6,-0.0
RR03159,-0.0
TPI,-0.7865960992834587
RR01593,-0.0
GK1,-2.1349741131558835
RR10368,-0.0
NDPK8,-0.12937332469919052
MAN1PT2_r,-0.11431048149555836
PYDXNO,-0.0
Kt7,-0.0
ACOAD10,-0.0
4AHD,-0.0
ADPT,-0.0
NH4t,-78.78214105115642
TALA,-1.9147202060268054
ALAALA,-0.1971239793362956
ALCD19,-0.0
G5SD,1.742690252103483
ACACT10rr,-0.0
RR09898,-0.0
NDPK2,-2.931219288384387
GLYCt5,-0.0
ARSNR,-0.0
FUMt6,-0.0
GUAPRT,-0.0
ETOHt1,-0.0
RR09741,-0.0
SULR,1.7431116403201776
ASAD,6.589368961437186
EDA,-86.79580483575714
RR03894,-0.00042138821669466836
ASPt2,-0.0
GLCRt2r,-0.0
PHETA1,1.4641454986935
RR03757,-0.0
NDPK4,-0.12937332469919052
NNAT,-0.01774115814026235
TYRTA,1.0570416283250634
GALCTNt6ir,-0.0
TRPS3,-0.0
G3PD2,0.7688549411431964
MTHFD,-8.115994190973463
RR04092,-0.0
NDPK6,-0.0
RR03047,-0.0
ALA_Dt2,-0.0
LLEUDr,3.485380504206966
GTHRD,-0.0
UDPG4E,-0.03810349383185278
GLYt2r,-0.0
LEUTAi,-0.0
RR00228,-0.0
RR01210,-0.0
MGCOAH,-0.0
CYTK1,-0.7401362628493081
IPDPS,-0.0
ASPTA,20.390047323464845
RR09735,-0.0
MICITD,-0.0
RR00223,-0.0
THRA,-0.0
RR00420,-0.0
UPPRT,-0.0
OHPBAT,-0.0
THD5,-15.911023386520547
RR01271,-2.0927210167155303
NAPRT,-0.0
BLACT,-0.0
HSAT,-1.0927524941468563
ACONTa,95.9810778484141
GLUR,-0.1971239793362956
PRAGSr,-3.6473221385361154
GLCRD,-0.0
AIRCr,3.6473221385361154
ALLNt2,-0.0
RR03900,-0.0
ALCD2x,-0.0
SUCOAS,83.8642525159629
RR04152,-0.0
RR00643,-0.0
NDPK1,-12.999366735296299
DAD-5t,-0.0
RR01284,-0.0
NMNAT,-0.0
MDH,-95.26332515626287
RR04084,-0.0
RR09715,-0.0
RR01873,-1.5556367369289328
RR02299,-0.0
ACACT1,-1.5556367369289328
ADSL2r,-3.6473221385361154
FORMD,-0.0
RR03017,-0.0
PMANM,-0.11431048149555836
DBTSr,-0.0
CHLt2r,-0.0
PDX5PO,-0.0
NDPK7,-0.20686590353248066
CATB,-0.0
HPYRRx,-0.0
RR04088,-0.0
DHFR,0.4457573115339458
DAPE,-2.1326529068774587
RR03160,-0.0
AGPR,2.0927210167155303
TKT1,1.990927193690511
GDPDP3PH,-0.0
MTRI,-0.0
CBIAT,-0.0
RR04089,-0.0
RR04183,-0.0
DTMPK,-0.12937332469919052
ACOTA,2.0927210167155303
RR03255,-0.0
GCALDt,0.3163839868347553
RR02157,-0.0
URIDK2r,0.12937332469919052
LGTHL,-0.0
O2t,-293.0790621002602
HCO3E,-12.703404872266818
A5PISO,0.07620698766370557
DADK,-0.0
TRPt2r,-0.0
PGMT,1.84916576963774
RR09730,1.5556367369289328
ACONTb,-95.9810778484141
ALAt2,-0.0
RR03018,-0.0
H2Ot5,593.0862010417219
NDPK5,-0.0
ICDH_a,-95.9810778484141
ASPK,-6.589368961437186
RR03164,-0.0
FUM,95.26332515626287
RR00941,-0.0
HISD1r,-0.0
E4PD,-0.0
SUCD1,-87.50390396052
GUADB,-0.0
SHK3D,3.2446749842217555
PHEt2r,-0.0
ABUTt2,-0.0
GALU,-0.17384049482048675
UMPK,-2.6729511645880177
RR01486,-0.0
ECOAH9,-0.0
RPE,-0.6609724154955607
N2t,-0.0
SERt2r,-0.0
TTDA8COAR,-0.0
HACD8,-0.0
3AMPADH,-0.0
IR01049,-0.0
HDDR5,-0.7363009158600502
HHDHL7,-0.3848345744419666
ALDD1x,-0.0
IR10309,-0.03810349383185278
PROLBabc,-0.0
HDEHL4,-1.38653864508958
AKGDH,-87.5039253870395
IR00737,-0.0
IR00560,-0.0
MG2abci,-0.0
IR07938,-66.91233757049417
CITt10,-0.0
DXPRIi,-0.0
CS,-95.9810778484141
ENPHE1,-0.0
KDOPP,-0.07620698766370557
IR09695,-0.6502377292295298
IR10374,-0.013270157739378159
CSND,-0.0
FAO4,-0.0
UAGPT3,-0.1971239793362956
IR09363,-0.0
IR04473,-0.0
PYK,-0.0
NO3t2,-0.0
IR01689,-0.0
PYDXK,-0.0
RNDR1,-0.12937332469919052
DEMAT4,-0.7363009158600502
IR04171,-0.0
SERAT,-0.0
IR03762,-0.0
RBK,-0.0
THRTRS,-1.8569650227332195
BPNT,-1.7431116403201776
IR00015,-0.0
MCMAT6,-0.3848345744419666
NTD6,-0.0
IR02236,-0.0
THRabc,-0.0
MCITD,-0.0
IR07019,-0.0
IR09703,-0.2255926815694287
ORNabc,-0.0
SOD,-0.0
TRPS1,-0.4071038703684366
HOCR3,-1.5556367369289328
IR00917,-0.0
DHNPA2,-0.3163839868347553
GMAND,-0.11431048149555836
CATA,-0.0
ZN2abc2,-0.0
IR09685,-0.0
GLUTRS,-2.064145181884932
ATPM,-81.6393442622951
IR10347,-0.03810349383185278
MECDPS,-0.0
UPP3S,-7.142173164358536e-06
IR07023,-0.0
IR02216,-0.0
DHAD2,-1.5069985376796515
GPDDA1,-0.0
UPPDC1,-7.142173164358536e-06
POBA,-0.0
SHKK,-3.2446749842217555
PA_USHD,-0.03810349383185278
PYAM5PO,-0.0
ILETRS,-1.5069985376796515
PRAIS,-3.6473221385361154
GLUTARt,-0.0
UAPGR,-0.1971239793362956
IR09692,-0.6502377292295298
HISTP,-0.7213594896002123
IR02503,-0.0
IG3PS,-0.7213594896002123
UNK4,-0.0
IR04100,-0.0
GLUSy,-0.0
IR00388,-0.0
PYDAMK,-0.0
PMDPHT,-7.142173164358536e-05
CBLAT,-0.0
HTDHL6,-0.3848345744419666
HPPDO1,-0.0
NIabc,-0.0
IR03708,-0.0
LYSTRS,-1.9355289275411633
THDPS,-2.1326529068774587
SHSL2,-0.0
IR02265,-0.7213594896002123
OCMAT3,-1.5556367369289328
IR00523,-0.0
IR10383,-2.0640880444996172
NO2t3,-0.0
DHDPS,-2.1326529068774587
PNTK,-0.00042138821669466836
IR00193,-0.0
PACCOAL,-0.0
ICL,-0.0
IR04107,-0.0
PROTRS,-1.742690252103483
ILEt2r,-0.0
PPCOAC,-0.0
ASPO6,-0.01774115814026235
IR00999,-0.0
IR10369,-0.0
IR01266,-0.0
ILEabc,-0.0
IR03964,-0.0
METabc,-0.0
IMPD,-2.1349741131558835
GAPDy1,-0.0
IR10377,-0.0007142173164358538
CPPPGO,-7.142173164358536e-06
IR00444,-0.0
IR01215,-0.0
TRPTRS,-0.4071038703684366
IR03796,-0.0
AHMMPS,-0.0
ADNCYC,-0.0
GLUTRR,-5.713738531486829e-05
IR10338,-0.03810349383185278
IR05590,-0.0
IR02552,-0.0
TAGURr,-0.0
IR04172,-0.0
P5CR,-1.742690252103483
IR05334,-0.0
IR03518,-0.0
IR00309,-0.0
IR02504,-0.0
IR01734,-0.3163839868347553
IR06958,-0.0
PPA,-60.832795705319995
GSADH,-0.0
IR10346,-0.03810349383185278
UDPGD,-0.0
IR03724,-0.0
IR10351,-0.0
PGLYCP,-0.0
IR09702,-0.2255926815694287
GLNS,-20.763111596531974
PMPK,-0.0
CYTBO3,-0.0
THM2t2,-0.0
IR02232,-0.0
ARGTRS,-1.8783915422262951
UAMAS,-0.1971239793362956
GLUt4i,-0.0
IR02386,-0.0
ASP1DC,-0.00042138821669466836
IR07969,-0.0
IR00496,-0.0
HOCHL3,-1.5556367369289328
IR10375,-0.0
GTPCI,-0.3163839868347553
IR09693,-0.6502377292295298
IR04855,-0.0
IR10335,-0.03810349383185278
DAPDC,-1.9355289275411633
IR10326,-0.009670502464541458
IR02477,-0.0
IR00235,-0.0
MTHPTGHM,-0.0
DPCOAK,-0.00042138821669466836
P3Bs,-0.0
IR01758,-0.0
PRFGS,-3.6473221385361154
IR02668,-0.0
IR02745,-0.0
ADSK,-1.7431116403201776
IR00296,-0.0
L-LACt4,-0.0
PNS1,-0.0
ADOCBLS,-0.0
MALt2_2,-0.0
IR03617,-0.0
GUADr,-0.0
COBALTt,-0.0
DAAD,-0.0
IR03646,-0.0
AIRC1,-0.0
URIC,-0.0
GLU5K,-1.742690252103483
IR00329,-0.0
IR04173,-0.0
IR10344,-0.03810349383185278
PDH,-112.4904825204091
RIBB,-0.00014284346328717073
MI1PP,-0.0
GND,-9.959499788377961
ASPabc,-0.0
ANS,-0.4071038703684366
IGPS,-0.4071038703684366
PHETRS,-1.4641454986935
DDGLK,-0.0
NADPHQO,-0.0
GMHEPAT,-0.07620698766370557
HSST,-1.5069985376796515
IR00764,-0.0
UAAGDS,-0.1971239793362956
IR01181,-0.0
PTA2,-0.0
FDH,-0.4165886763307056
LYSabc,-0.0
LEUTRS,-3.485380504206966
MCMAT5,-0.7363009158600502
IR10327,-0.009670502464541458
IR02744,-0.0
IR02208,-0.0
IR09697,-0.6502377292295298
IR00853,-0.0
IR00138,-0.0
3OCHLA,-0.0
HISabc,-0.0
MAL_Dt2,-0.0
DHQS,-3.2446749842217555
DMQMT,-0.0
CVXCXPPM,-0.0
IR10339,-0.03810349383185278
NNDMBRT,-0.0
IR05024,-0.0
METTRS,-0.9927620698458367
FGLU,-0.0
PC11M,-0.0
IR09684,-0.0
LEUabc,-0.0
ASNabc,-0.0
UNK7,-0.0
IR10379,-0.0
TMPPP,-0.0
PA_LPADSS,-0.03810349383185278
DUTPDP,-0.0
VANAB,-0.0
IR09686,-0.0
UAGDP,-0.4704549463362967
IR02264,-0.7213594896002123
2KG6PRy,-0.0
IR09746,-0.0
IR10352,-0.0
GLNabc,-0.0
TAURabc,-0.0
IR09694,-0.6502377292295298
MTHFR2,-1.4091364809816107
GLTCOAD,-0.0
SDPDS,-2.1326529068774587
MCMAT4,-1.5556367369289328
PA_TDSK,-0.03810349383185278
GUI2,-0.0
IR05416,-0.20686590353248066
GLYOX,-0.0
IR02603,-0.0
PPS,-0.0
ADCS,-0.3163839868347553
IR02407,-3.6473221385361154
IR10371,-0.6502377292295298
MAT6,-0.3848345744419666
IR02695,-0.0
IR01087,-0.0
GLCP,-0.0
DHFS,-0.3163839868347553
IR08488,-0.0
GLUPRT,-3.6473221385361154
CHOLD2,-0.0
MTRK,-0.0
XANDb,-0.0
CPPPGOAN,-0.0
PA_MOAT2,-0.03810349383185278
ASPTRS,-1.7926854642539927
IR00806,-0.0
IR00255,-0.0
DMOCT,-0.07620698766370557
VALTRS,-2.371201490567034
IR10357,-0.0
NTD8,-0.0
IR10334,-0.03810349383185278
IR01001,-0.0
URCN,-0.0
GBBTNabc,-0.0
IR00556,-0.0
SSALy,-0.0
ALTRH,-0.0
TDPGDH,-0.0
IR10336,-0.03810349383185278
MLACI,-0.0
IR02357,-0.0
IR00394,-0.0
RBFSb,-7.142173164358536e-05
IR09696,-0.6502377292295298
BTMAT1,-1.5556367369289328
OXDE,21.107800015616085
IR03564,-0.0
IR02645,-0.0
PANTS,-0.00042138821669466836
GTPCII2,-7.142173164358536e-05
IR03020,-0.0
RNDR3,-0.20686590353248066
RBFK,-7.142173164358536e-05
FEDCabc,-0.0
UAMAGS,-0.1971239793362956
PSP_L,-11.280680406840743
IR00645,-1.5069985376796515
TAUDO,-0.0
ARGabc,-0.0
XANDa,-0.0
CHORM,-2.521187127018564
PPBNGS,-2.8568692657434144e-05
IR00589,-0.0
IR00250,-0.0
CSNt2,-0.0
NTD2,-0.0
IR09687,-0.0
SHCHF,-0.0
EDD,-86.79580483575714
PFK_2,-0.0
HDER4,-1.5556367369289328
IR10389,-0.007142173164358537
NTD4,-0.0
QUINOR,-0.0
IR09704,-0.2255926815694287
CHLabc,-0.0
Cut1,-0.0
GF6PTA,-0.4704549463362967
2DHGLCK,-0.0
HBZOPT,-0.0
IR01879,-0.0
BENA,-0.0
PC17M,-0.0
GLXCBL,-0.0
IR03599,-0.0
PPNCL2,-0.00042138821669466836
PPCDC,-0.00042138821669466836
MCITS,-0.0
CYOO3,-291.8513118200472
HMGL,-0.0
PTRCTA,-0.0
ASPCT,-2.4377236914198694
GMPS2,-2.1349741131558835
NTD11,-0.0
IR04165,-0.0
ZN2abc1,-0.0
SUCCt2_2,-0.0
IR02613,-0.0
SHSL5,-0.0
TRDR,-2.4155900967835198
IR04182,-0.0
G1PACT,-0.4704549463362967
PUTA,-0.0
IR01547,-0.0
IPPS,-3.485380504206966
METSR-S1,-0.0
CBPS,-4.354218727478018
HBUHL1,-1.5556367369289328
IR10322,-0.002106941083485768
CYORUBQ8-4h,-583.7026236400944
CRNabc,-0.0
F1PK,-0.0
RNDR4,-0.12937332469919052
OMMBLHX,-0.0
NO3abc,-0.0
IR00434,-0.0
MEPCT,-0.0
IR00374,-0.0
DMATT,-0.0
FMNAT,-7.142173164358536e-05
PPACAH,-0.0
UGMDDS,-0.1971239793362956
IR02156,-0.0
FDH2,-0.0
FRUpts,-0.0
IR00642,-0.0
IR10365,-0.03810349383185278
IR10348,-0.03810349383185278
IR00241,-0.0
PA_CORE1s,-0.03810349383185278
MCMAT3,-1.5556367369289328
IR10115,-0.0
IR09745,-0.0
PPC,-0.0
ALGE,-0.0
IR03777,-0.0
3ABUTabc,-0.0
IR00811,-0.0
HPPK2,-0.0
NNDPR,-0.01774115814026235
IR02665,-0.0
IR02596,-0.0
HEX4,-0.0
IR03952,-0.0
MOHMT,-0.00042138821669466836
GPDDA2,-0.0
IR04850,-0.6503591461733214
IR09699,-0.6502377292295298
HHYHL2,-1.5556367369289328
NTD10,-0.0
HDDHL5,-0.5804729817600756
2DHGLCNt6i,-0.0
PROt4,-0.0
IR01558,-0.0
CTPS2,-1.2071986769325374
CD2t,-0.0
ARGDC,-0.0
IR03493,-0.0
PNS3,-0.0
ABUTD,-0.0
KARA2i,-1.5069985376796515
IR00747,-0.0
IR07060,-0.0
CYSS,-0.0
IR10367,-0.0
IR01037,-0.0
IR09701,-0.2255926815694287
ZN2t,-0.0
DAHPS,-3.2446749842217555
OPHBDC,-0.0
SARCO,-0.0
HTDR6,-0.3848345744419666
ARGSS,-1.8783915422262951
UPP3MT,-0.0
IR00679,-0.0
IR10345,-0.03810349383185278
QULNS,-0.01774115814026235
IR09689,-0.6502377292295298
3OXACOA,-0.0
GLUCYSL,-0.0
ALGLi,-0.0
HISTRS,-0.7213594896002123
HMPK1,-0.0
METAT,-0.0
OCTDPS,-0.0
NADK,-0.0037853517771067632
HSK,-1.8569650227332195
THRS,-1.8569650227332195
IR05396,-0.0
LYSDC,-0.0
UDPDPS,-0.0
IR01289,-0.0
2DGLCNRy2ip,-1.395529606227156
PRAIi,-0.4071038703684366
CDPMEK,-0.0
IR08557,-0.0
IR10337,-0.03810349383185278
G1SATi,-5.713738531486829e-05
PPNDH,-1.4641454986935
DHPPDA2,-7.142173164358536e-05
ACHBS,-1.5069985376796515
AOXSr,-0.0
SULabc,-1.7431116403201776
AMMQT8_2,-0.0
IR09698,-0.6502377292295298
RIBabc,-0.0
IZPN,-0.0
IR01353,-0.0
DKMD3M,-0.0
NTD5,-0.0
HPYRI,-0.0
ORNDC,-0.2143294744892353
IR10323,-0.0014927141913509342
DAMVALs,-0.0
ME1,-0.0
4ABUTNC,-0.0
IR02684,-0.0
BADH,-0.0
IR01534,-0.0
NADS1,-0.01774115814026235
IR01097,-0.0
DHDPRy,-2.1326529068774587
HODHL8,-0.0
GLUSD,-0.0
IGPDH,-0.7213594896002123
OMPDC,-2.4377236914198694
AGMHE,-0.07620698766370557
IR10386,-0.09999042430101952
SGDS,-0.0
IR01775,-0.0
HHYR2,-1.5556367369289328
IR01265,-0.0
IR10370,-7.142173164358536e-06
ALGD,-0.0
PGL,-0.0
IR02389,-0.0
GNK,-96.75530462413509
GLCS1,-1.6753252748172531
NTD9,-0.0
GLUN,-0.0
AGMT,-0.0
ACOAD8,-0.0
IMPC,-4.368681628136328
SPMS,-0.0
GLYBabc,-0.0
IR03538,-0.0
HEMAT2,-1.5556367369289328
GLYTRS,-3.6925035259733634
CAT,-1.227732424780066
4HTHRS,-0.0
GMHEPPA,-0.07620698766370557
DNMPPA,-0.3163839868347553
PA_U23GAAT,-0.07620698766370557
CYANST,-0.0
IR03569,-0.0
CYSTRS,-0.6499377579566268
DKMD2K,-0.0
IR00748,-0.0
NTD7,-0.0
MALS,-0.0
ALDD2x,-0.0
PA_MOAT,-0.03810349383185278
OMBZLM,-0.0
IR09700,-0.6502377292295298
PRMICIi,-0.7213594896002123
IR03345,-0.0
GLCabc,-1.84916576963774
IR04028,-0.0
PDXA,-0.0
CYSabc,-0.0
DHPS3,-0.0
PPND,-1.0570416283250634
GLCNt2ir,-96.75530462413509
IR01474,-0.0
IR10366,-0.0
AMAA,-0.0
ACGS,-0.0
GLYK,-0.0
METS,-1.0927524941468563
C4HLA,-0.0
IR10382,-1.7926854642539927
IR10385,-0.09999042430101952
HGENDO,-0.0
PPPGOan,-3.571086582179268e-06
IR00095,-0.0
GLGC,-1.6753252748172531
GMHEPK,-0.07620698766370557
ALGNE,-0.0
ACOATA,-0.0
DXPS,-0.0
AGMTNDMN,-0.0
MOBDabc,-0.0
APRAUR,-7.142173164358536e-05
OCDMAT8,-0.0
NADH6,-199.02394272460606
SUCCt2b,-0.0
IR03576,-0.0
DDMAT5,-0.5804729817600756
SPMDabc,-0.0
IR10321,-0.002106941083485768
TMDS,-0.12937332469919052
LEUt2,-0.0
PYDXNK,-0.0
IR10340,-0.03810349383185278
IR02335,-0.0
IR00401,-0.0
IR03994,-0.0
IR02688,-0.0
IR01797,-0.0
UDCPK,-0.0
IR00973,-0.0
ADCL,-0.3163839868347553
IR04162,-0.0
PIabc,-0.0
IR01046,-2.4377236914198694
IR01705,-0.0
FUMACA,-0.0
PTRCabc,-0.0
PPTGS,-0.1971239793362956
ACAC,-0.0
TSULabc,-0.0
GLYCK,-0.0
IR09690,-0.6502377292295298
GART,-0.0
ALLTN,-0.0
SHSL1,-0.0
OMPHHX,-0.0
KDOPS,-0.07620698766370557
ACODA,-0.0
1PYRRD,-0.0
RBFSa,-0.00014284346328717073
IR03622,-1.0927524941468563
ACS,-0.0
IR02691,-0.0
GLUTCOAs,-0.0
TYRTRS,-1.0570416283250634
NAt3_1.5,-0.0
DIAOX,-0.0
IR01137,-0.0
GRTT,-0.0
MCMAT2,-1.5556367369289328
AMPN,-0.0
RNDR2,-0.20686590353248066
IR10384,-1.7926854642539927
FBP,-0.0
DHAD1,-5.857003382990696
PPNabc,-0.0
ACLS,-5.857003382990696
PA_UACAT,-0.07620698766370557
PEPDabc,-0.0
BTNL1,-0.0
FE2abc,-7.142173164358536e-06
TREHS,-0.0
MNabc,-0.0
GLCLCT,-98.15083423036225
MTAN,-0.0
IR10343,-0.03810349383185278
IR04157,-0.0
HHDR7,-0.3848345744419666
MCMAT7,-0.3848345744419666
ALAabc,-0.0
IR01889,-0.0
IR10394,-0.0
SERTRS,-1.8926758885550123
NAt3_2,-0.0
MDRPD,-0.0
IR02640,-0.0
MECDPDH,-0.0
IR03961,-0.0
ACGK,-2.0927210167155303
HEX1,-1.84916576963774
MAN1PT1_r,-0.0
IR00406,-0.0
GLUabc,-0.0
MALt2,-0.0
OHPHM,-0.0
IR10320,-0.013270157739378159
IR00019,-0.0
HEMEOS,-0.0
VALabc,-0.0
GLCNACPPUNDs,-0.0
DNTPPA,-0.3163839868347553
HISTD,-0.7213594896002123
IR01287,-0.0
IR00141,-0.0
NTD3,-0.0
ACMAT1,-0.0
SHCHD2,-0.0
2HMYRSACPs,-0.0
PCAHG,-0.0
NTD1,-0.0
FCLT,-7.142173164358536e-06
IR00283,-1.7431116403201776
IR02048,-0.0
PA_CORE2s,-0.03810349383185278
IR00059,-7.142173164358536e-06
ACPS1,-0.0
IR09691,-0.6502377292295298
ADSS,-2.2337075149804377
UNK6,-0.0
BEND,-0.0
NTRIR2x,-0.0
ala-Bt2,-0.0
GTPDPK,-0.0
ASNS1,-0.0
CYCPO,-0.0
MCCc,-0.0
PROabc,-0.0
IR00799,-0.0
ALGNA,-0.0
IR00840,-0.0
HBUR1,-0.0
FTHFD,-0.0
OMCDC,-3.485380504206966
AHSERL,-0.0
IR03420,-0.0
GTHS,-0.0
PA_UHGADA,-0.07620698766370557
CHORS,-3.2446749842217555
EX_his__L_e,-0.0
EX_mobd_e,0.0
EX_ala__L_e,-0.0
EX_btd__RR_e,0.0
EX_fum_e,-0.0
EX_pi_e,6.652198658765355
EX_phe__L_e,-0.0
EX_akg_e,-0.0
EX_glcr_e,0.0
EX_succ_e,0.0
EX_dad__5_e,0.0
EX_thm_e,0.0
EX_cobalt2_e,-0.0
EX_EC9324_e,-7.142173164358536
EX_lys__L_e,-0.0
EX_ptrc_e,-0.0
EX_glcn_e,-0.0
EX_ser__L_e,-0.0
EX_cit_e,-0.0
EX_no2_e,-0.0
EX_xan_e,-0.0
EX_glyb_e,0.0
EX_h2o_e,-494.9734703051915
EX_chol_e,0.0
EX_ala__D_e,-0.0
EX_mg2_e,-0.0
EX_cys__L_e,-0.0
EX_arg__L_e,-0.0
EX_glyc_e,-0.0
EX_urea_e,-0.0
EX_pyr_e,-0.0
EX_ile__L_e,-0.0
EX_n2_e,0.0
EX_Ni2+_e,0.0
EX_EC9581_e,-0.0
EX_tsul_e,0.0
EX_zn2_e,0.0
EX_spmd_e,0.0
EX_met__L_e,-0.0
EX_na1_e,0.0
EX_mal__D_e,0.0
EX_alltn_e,0.0
EX_leu__L_e,-0.0
EX_asn__L_e,-0.0
EX_cd2_e,-0.0
EX_glutar_e,0.0
EX_Cu2+_e,0.0
EX_gcald_e,-0.3163839868347553
EX_2dhglcn_e,-1.395529606227156
EX_nh4_e,78.78214105115642
EX_4hbz_e,-0.0
EX_orn_e,-0.0
EX_co2_e,-297.2671906256762
EX_4abut_e,-0.0
EX_ala__B_e,-0.0
EX_glu__D_e,-0.0
EX_rib__D_e,0.0
EX_csn_e,-0.0
EX_ppn_e,0.0
EX_no3_e,0.0
EX_galctn__D_e,0.0
EX_algna_e,0.0
EX_EC9587_e,-0.0
EX_ura_e,-0.0
EX_fe3_e,0.0
EX_pepd_e,0.0
EX_mal__L_e,-0.0
EX_glc__D_e,100.0
EX_ac_e,-1.1689594818105615
EX_EC9598_e,-0.0
EX_tyr__L_e,-0.0
EX_so4_e,1.7431116403201776
EX_crn_e,0.0
EX_prolb_e,0.0
EX_fru_e,-0.0
EX_gln__L_e,-0.0
EX_mn2_e,0.0
EX_myrt_e,0.0
EX_g15lac_e,-0.0
EX_thr__L_e,-0.0
EX_pro__L_e,-0.0
EX_Fe3+_e,7.142173164358536e-06
EX_asp__L_e,-0.0
EX_bz_e,0.0
EX_h_e,119.50416718370145
EX_etoh_e,-0.0
EX_k_e,0.0
EX_lac__L_e,0.0
EX_gbbtn_e,0.0
EX_gly_e,-0.0
EX_glu__L_e,-0.0
EX_trp__L_e,-0.0
EX_o2_e,293.0790621002602
EX_taur_e,0.0
EX_val__L_e,-0.0
ICDH_b,-95.9810778484141
MDH2,-0.0
G1Dz,-98.15083423036225
2DGLCNRz2i,-0.0
corA_Co,-0.0
corA_Mg2,-0.0
SERabc,-0.0
fer_mff_t,-0.0
fer_simp_t,-0.0
fer_simp_facilitator_t,-0.0
ferulcoas,-0.0
fcoaha_a,-0.0
fcoaha_b,-0.0
hhmppcoarx,-0.0
hmpkppncoakt,-0.0
valcoah,-0.0
vndh,-0.0
vanln_mff_t,-0.0
EX_vanln_e,-0.0
EX_fer_e,-0.0
TCTt1,-0.0
TCTt2,-0.0
TCTt3,-0.0
TCTt4,-0.0
TCTt5,-0.0
TCTt6,-0.0
TCTt7,-0.0
TCTt8,-0.0
EX_2mcit_e,-0.0
EX_oxsucc_e,-0.0
EX_micit_e,-0.0
EX_C2688_e,0.0
EX_icit_e,-0.0
EX_2mcacn_e,-0.0
EX_3cmuc_e,-0.0
